<?xml version="1.0" encoding="UTF-8" standalone="no"?>
<!-- Created with Inkscape (http://www.inkscape.org/) -->

<svg
   xmlns:dc="http://purl.org/dc/elements/1.1/"
   xmlns:cc="http://creativecommons.org/ns#"
   xmlns:rdf="http://www.w3.org/1999/02/22-rdf-syntax-ns#"
   xmlns:svg="http://www.w3.org/2000/svg"
   xmlns="http://www.w3.org/2000/svg"
   xmlns:sodipodi="http://sodipodi.sourceforge.net/DTD/sodipodi-0.dtd"
   xmlns:inkscape="http://www.inkscape.org/namespaces/inkscape"
   id="svg3056"
   version="1.1"
   inkscape:version="0.48.0 r9654"
   width="458"
   height="241"
   sodipodi:docname="WikiProject .NET logo">
  <metadata
     id="metadata3062">
    <rdf:RDF>
      <cc:Work
         rdf:about="">
        <dc:format>image/svg+xml</dc:format>
        <dc:type
           rdf:resource="http://purl.org/dc/dcmitype/StillImage" />
        <dc:title></dc:title>
      </cc:Work>
    </rdf:RDF>
  </metadata>
  <defs
     id="defs3060" />
  <sodipodi:namedview
     pagecolor="#ffffff"
     bordercolor="#666666"
     borderopacity="1"
     objecttolerance="10"
     gridtolerance="10"
     guidetolerance="10"
     inkscape:pageopacity="0"
     inkscape:pageshadow="2"
     inkscape:window-width="1600"
     inkscape:window-height="838"
     id="namedview3058"
     showgrid="false"
     inkscape:zoom="2.0960699"
     inkscape:cx="229"
     inkscape:cy="120.5"
     inkscape:window-x="-8"
     inkscape:window-y="-8"
     inkscape:window-maximized="1"
     inkscape:current-layer="svg3056" />
  <path
     style="fill:#000000;fill-opacity:1;stroke:#000069;stroke-width:0.47708333000000003;stroke-opacity:0"
     d="m 24.092708,197.215 c 0.163608,6.24676 -0.322205,12.76253 0.238542,18.84479 6.246764,-0.16361 12.762528,0.32221 18.844792,-0.23854 -0.163608,-6.24676 0.322205,-12.76253 -0.238542,-18.84479 -6.242925,0.16235 -12.76797,-0.32042 -18.844792,0.23854 z"
     id="path3066"
     inkscape:connector-curvature="0" />
  <path
     style="fill:#000000;fill-opacity:1;stroke:#000069;stroke-width:0.47708333000000003;stroke-opacity:0"
     d="m 76.094792,79.375417 c 0,45.481943 0,90.963893 0,136.445833 5.448167,0.55588 11.324415,0.0783 16.936458,0.23854 0.556714,-8.31032 0.07943,-17.04894 0.238542,-25.52396 0.07756,-27.21784 -0.19658,-54.44371 0.372721,-81.65579 1.435476,1.21855 1.920841,3.25582 3.011588,4.57702 1.10619,0.8294 1.341972,2.70539 2.653777,3.5483 0.709072,0.77077 0.585444,2.01668 1.565432,2.45997 -0.12706,1.12611 1.31646,1.11474 1.14798,2.28105 1.24718,0.35949 0.7843,1.88786 1.98288,2.57923 1.47229,1.07722 1.60072,3.29233 3.07122,4.12975 0.25468,1.56594 1.75583,2.59374 2.28106,3.99558 1.08636,0.33693 0.49132,2.2182 1.84869,2.59414 0.89564,1.15755 1.17374,2.6874 2.44506,3.66758 2.02224,3.20712 4.4066,6.30967 6.33626,9.49694 -0.017,1.05861 1.27991,1.06003 1.14798,2.1916 1.06362,0.20899 0.52578,1.63688 1.61016,1.81888 -0.10746,1.20821 1.41583,1.26628 1.13307,2.5345 0.64085,0.89685 1.93825,1.19025 2.11706,2.56433 1.45241,1.59725 2.16444,3.85125 3.80175,5.29264 0.21274,0.64328 0.47845,1.35959 1.13308,1.69961 -0.1386,1.09219 1.28672,1.11864 1.08834,2.26614 0.68953,1.18069 1.88403,1.96367 2.08724,3.3545 0.62002,0.44299 1.41775,0.31063 1.41634,1.3567 1.52619,2.16005 2.37301,4.6934 4.38321,6.42572 0.17474,1.74993 2.23709,2.4355 2.28105,4.2192 0.99958,0.21522 0.48446,1.60799 1.55052,1.77416 -0.0857,0.85161 0.65856,1.18199 1.05853,1.63997 1.12736,2.42594 3.37205,4.43637 4.51738,6.97735 0.68627,1.16003 1.78129,1.75896 1.99779,3.05631 1.11769,0.37525 0.50916,2.23372 1.87852,2.63887 0.89563,1.15755 1.17373,2.6874 2.44505,3.66758 2.02224,3.20712 4.4066,6.30967 6.33626,9.49694 -0.017,1.05861 1.27991,1.06003 1.14798,2.1916 1.23293,0.40053 0.97221,2.48674 2.6836,2.40032 5.77719,0.54852 11.60274,0.1659 17.39863,0.28327 0.55671,-8.31032 0.0794,-17.04894 0.23854,-25.52396 0,-37.05347 0,-74.10694 0,-111.160413 -5.28873,-0.556854 -11.00593,-0.07932 -16.45937,-0.238542 -0.56313,8.310321 -0.0935,17.048938 -0.25947,25.523945 -0.0896,27.15451 0.12946,54.53915 -0.30707,81.55145 -1.33538,0.16927 -0.84136,-1.40143 -1.83379,-1.63998 -0.23829,-0.65545 -0.49731,-1.33521 -1.14798,-1.6847 0.0593,-1.12497 -1.29875,-1.1897 -1.19271,-2.38542 -2.47595,-2.86259 -4.26856,-6.17041 -6.54499,-9.16894 -0.63262,-0.41366 -0.43627,-1.52114 -1.31198,-1.78906 0.004,-1.80632 -2.19883,-2.48552 -2.20651,-4.27884 -1.15679,-0.44193 -1.20082,-2.07403 -2.32578,-2.80287 -1.8547,-2.62173 -3.30842,-5.45272 -5.35228,-7.90169 -0.15762,-0.76066 -0.4833,-1.35881 -1.10325,-1.72943 0.12706,-1.12611 -1.31646,-1.11474 -1.14798,-2.28105 -1.05779,-0.27458 -0.62798,-1.61873 -1.65489,-1.92325 0.15494,-1.8361 -2.03969,-2.12808 -2.53494,-3.80313 -1.31273,-2.44727 -3.22573,-4.6338 -4.41258,-7.11015 -1.51532,-0.83268 -1.21143,-2.85644 -2.80287,-3.66758 -0.43945,-0.98253 -0.66532,-1.96048 -1.62506,-2.60904 -1.58861,-2.43251 -3.39273,-4.90085 -4.91992,-7.26062 0.0508,-1.12585 -1.27885,-1.12979 -1.16289,-2.28105 -1.06363,-0.20899 -0.52579,-1.63688 -1.61016,-1.81888 0.1167,-1.203 -1.40039,-1.25253 -1.13307,-2.50469 -0.42408,-0.99764 -1.87465,-0.81497 -1.89343,-2.1916 -1.72755,-2.43805 -3.32984,-5.29962 -5.17337,-7.49915 0.0615,-1.04618 -1.27995,-1.03594 -1.07344,-2.16179 -0.70136,-1.20807 -1.95611,-1.99604 -2.08724,-3.45885 -0.97575,-0.20025 -0.45581,-1.53984 -1.47597,-1.75925 -1.8478,-2.351638 -3.31398,-5.053321 -4.97956,-7.484242 -0.75122,-0.144033 -0.25649,-1.554655 -1.26725,-1.565429 0.13993,-1.175486 -1.30609,-1.202486 -1.16289,-2.340691 -0.88402,-0.340302 -0.7416,-1.145022 -1.282165,-1.774153 C 98.987167,87.094576 99.345756,85.415911 98.219531,84.92151 96.40241,83.320504 96.0086,80.106576 93.94069,79.136875 88.029051,79.295564 81.840132,78.819616 76.094792,79.375417 z"
     id="path3068"
     inkscape:connector-curvature="0" />
  <path
     style="fill:#000000;fill-opacity:1;stroke:#000069;stroke-width:0.47708333000000003;stroke-opacity:0"
     d="m 210.15521,79.8525 c 0,45.48194 0,90.96389 0,136.44583 8.31033,0.55671 17.04895,0.0794 25.52396,0.23854 25.60347,0 51.20694,0 76.81042,0 0.55586,-5.13012 0.0782,-10.68833 0.23854,-15.98229 -8.31033,-0.55671 -17.04895,-0.0794 -25.52396,-0.23854 -19.80393,0 -39.60786,0 -59.41178,0 0.0923,-15.50517 0.17674,-31.01038 0.25345,-46.51563 25.12638,-0.0799 50.25277,-0.15941 75.37916,-0.23854 0.55586,-5.13012 0.0782,-10.68833 0.23855,-15.98229 -8.31033,-0.55671 -17.04895,-0.0794 -25.52396,-0.23854 -16.77744,0 -33.55486,0 -50.33229,0 0,-13.83542 0,-27.67084 0,-41.506249 26.9552,0 53.91041,0 80.86562,0 0.55586,-5.130122 0.0782,-10.688338 0.23854,-15.982291 -8.31032,-0.556714 -17.04894,-0.07943 -25.52396,-0.238542 -24.33125,0 -48.6625,0 -72.99375,0 l -0.23854,0.238542 z"
     id="path3070"
     inkscape:connector-curvature="0" />
  <path
     style="fill:#000000;fill-opacity:1;stroke:#000069;stroke-width:0.47708333000000003;stroke-opacity:0"
     d="m 330.85729,79.375417 c 0.16496,5.292037 -0.32372,10.854823 0.23854,15.982291 15.18716,0 30.37431,0 45.56146,0 0,40.154512 0,80.309022 0,120.463542 5.6068,0.55683 11.64204,0.0793 17.41354,0.23854 0.55672,-8.31032 0.0794,-17.04894 0.23855,-25.52396 0,-31.72604 0,-63.45208 0,-95.178122 15.18715,0 30.3743,0 45.56145,0 0.55586,-5.130122 0.0782,-10.688338 0.23855,-15.982291 -8.31033,-0.556714 -17.04895,-0.07943 -25.52396,-0.238542 -27.82986,0 -55.65973,0 -83.48959,0 l -0.23854,0.238542 z"
     id="path3072"
     inkscape:connector-curvature="0" />
  <path
     style="fill:#000000;fill-opacity:1;stroke:#000069;stroke-width:0.47708333000000003;stroke-opacity:0"
     d="m 252.61563,24.03375 c -0.56527,2.052369 1.47619,6.620955 -1.81889,5.993359 -1.77442,0.162916 -1.41554,3.895653 0.59636,3.309766 2.55222,0.381448 0.57421,5.372401 1.2804,7.632184 0.38162,4.059798 -0.51088,8.498238 0.92611,12.330772 0.79892,1.046804 2.20706,0.850001 2.93704,1.759244 1.88482,0.51191 5.68702,0.628637 5.09883,-2.355598 -0.98451,-1.864993 -4.97602,0.680521 -4.24902,-2.191602 0,-5.725 0,-11.45 0,-17.175 1.3199,-0.04343 4.22667,0.594341 3.81667,-1.684701 0.38449,-2.258916 -2.5064,-1.601357 -3.81667,-1.654882 -0.51201,-2.250905 1.5954,-7.266859 -2.38542,-6.202084 -0.73979,0.166211 -1.8221,-0.331197 -2.38541,0.238542 z"
     id="path3074"
     inkscape:connector-curvature="0" />
  <path
     style="fill:#000000;fill-opacity:1;stroke:#000069;stroke-width:0.47708333000000003;stroke-opacity:0"
     d="m 237.48314,29.058034 c -1.83464,-0.33279 -2.78979,1.282413 -4.57702,1.028711 -0.82551,0.280691 -0.91537,1.085527 -1.87852,1.222526 -1.3552,0.588049 -1.28659,2.567827 -2.74323,2.668685 -0.68896,0.664718 -0.3139,1.718356 -1.16289,2.221419 -0.53982,1.876964 0.16785,4.104178 -1.14798,5.605729 -0.65696,1.785646 1.23408,2.660368 0.86472,4.383203 -0.0777,1.350811 0.0679,2.88612 0.92435,3.757032 -0.21965,1.128337 0.87976,1.4703 1.49088,1.789062 0.35122,1.425396 1.88633,2.189411 2.84759,2.877409 0.7342,1.153709 2.57983,0.27983 3.38431,1.356706 2.03791,0.407113 4.55139,0.588373 6.20208,-0.641081 1.16785,0.332745 1.62624,-0.728815 2.38542,-0.998893 2.52722,-0.416217 3.23328,-3.329414 3.66758,-5.382097 0.89945,-1.0726 -1.90253,-0.828466 -2.54941,-0.64108 -1.84114,0.08566 -1.91411,1.904361 -2.72832,3.011588 -0.69342,0.550474 -1.52926,0.808996 -2.07234,1.386524 -1.80979,0.140173 -4.31606,0.713558 -5.60572,-0.700717 -3.04063,-0.48827 -3.25946,-4.647103 -3.77194,-7.051888 -0.39121,-3.919161 -0.24661,-8.854349 2.98177,-11.539453 1.25192,0.09844 1.56682,-1.381659 2.96686,-0.998893 1.51538,0.02753 3.39357,-0.362832 4.33847,0.90944 2.17957,0.230344 1.36957,3.362006 3.60795,3.578125 0.7825,0.168702 3.22369,0.676241 2.99668,-0.477083 -0.95074,-1.192629 -0.32765,-3.340952 -1.92325,-4.368295 -0.7739,-1.207136 -2.29149,-0.787917 -2.95195,-1.908333 -1.03224,-0.01674 -1.79856,-0.339185 -2.54941,-0.879622 -0.96994,-0.255228 -1.99767,-0.220285 -2.99668,-0.208724 z"
     id="path3076"
     inkscape:connector-curvature="0" />
  <path
     style="fill:#000000;fill-opacity:1;stroke:#000069;stroke-width:0.47708333000000003;stroke-opacity:0"
     d="m 210.76647,29.058034 c -1.34467,-0.29128 -2.20544,0.584081 -3.26504,0.924349 -1.39267,-0.305691 -1.56095,1.229575 -2.81777,1.147982 -5.49428,3.906615 -5.35354,11.837589 -3.89121,17.741536 0.86545,2.404938 2.5699,5.085192 5.06901,5.695182 0.67875,1.20582 2.58769,0.359754 3.42903,1.401433 2.07295,0.282682 4.81334,0.766291 6.48536,-0.611263 1.75096,0.257826 2.79634,-1.130737 3.99557,-1.997787 1.2769,-0.994113 2.68485,-3.217819 2.07233,-4.845377 -1.39503,-0.833746 -3.5801,-0.495149 -4.08503,1.147981 -1.57365,2.36159 -4.13984,3.861588 -7.03698,3.190495 -1.39937,0.25892 -1.84839,-1.042789 -3.16067,-1.088346 -1.41468,-0.502244 -0.91188,-2.321621 -2.07233,-2.907227 0.0813,-1.069673 -0.4147,-1.843502 -0.93926,-2.564323 -1.35008,-3.632645 2.04776,-3.049861 4.65156,-2.937044 4.73858,-0.157379 9.73906,0.317514 14.3125,-0.238542 0.17246,-1.549387 0.0374,-3.07481 -0.93926,-4.189388 -0.74283,-2.401345 -1.20387,-5.730713 -3.5483,-7.036979 -0.4132,-0.512352 -0.91241,-1.038913 -1.6847,-1.103255 -0.57363,-1.342143 -2.61333,-0.358374 -3.41413,-1.475977 -1.01578,-0.304264 -2.1061,-0.264885 -3.16068,-0.25345 z m 1.14798,3.339583 c 3.03181,-0.06826 4.73769,3.119691 6.15736,5.33737 0.42313,1.348367 -0.13542,2.727715 -1.92287,2.080006 -3.90625,0.07661 -7.81249,0.153736 -11.71873,0.230866 -0.15181,-1.209605 -0.0348,-2.310669 0.86471,-3.026497 -0.21359,-1.058771 0.553,-1.254468 1.02871,-1.908333 0.14794,-1.515965 1.95476,-1.628427 2.6836,-2.534506 0.91122,-0.218841 1.94793,-0.19263 2.90722,-0.178906 z"
     id="path3078"
     inkscape:connector-curvature="0" />
  <path
     style="fill:#000000;fill-opacity:1;stroke:#000069;stroke-width:0.47708333000000003;stroke-opacity:0"
     d="m 190.11771,30.235833 c -0.24816,10.100587 0.51835,20.324097 -0.44727,30.354427 -0.27469,2.819107 -4.92659,-0.126837 -4.80065,2.832683 -0.25915,2.935895 3.61519,3.361383 5.57591,2.445052 0.44822,-1.007383 2.15042,-0.623634 2.71341,-1.81888 2.53393,-1.955902 0.69542,-5.720351 1.25235,-8.483138 0,-8.443382 0,-16.886762 0,-25.330144 -1.12499,-0.395524 -3.16307,-0.396078 -4.29375,0 z"
     id="path3080"
     inkscape:connector-curvature="0" />
  <path
     style="fill:#000000;fill-opacity:1;stroke:#000069;stroke-width:0.47708333000000003;stroke-opacity:0"
     d="m 191.37005,20.947617 c -1.86608,0.03674 -1.55974,3.068633 -0.77526,4.085026 1.5544,0.5374 4.52563,0.522072 3.81667,-1.95306 0.39641,-2.341969 -1.14689,-2.278429 -3.04141,-2.131966 z"
     id="path3082"
     inkscape:connector-curvature="0" />
  <path
     style="fill:#000000;fill-opacity:1;stroke:#000069;stroke-width:0.47708333000000003;stroke-opacity:0"
     d="m 173.25579,29.058034 c -1.90341,-0.364441 -2.93458,1.232709 -4.75592,1.028711 -0.80327,0.278896 -0.97028,1.087098 -1.93815,1.058528 -0.28212,1.049109 -1.98928,0.66734 -1.74434,2.131967 -0.12868,0.735912 -1.1977,0.936484 -1.05853,1.908333 -1.40799,0.530126 -0.37504,2.615849 -1.49088,3.414127 -0.32514,2.716768 -0.70119,5.897832 0.22363,8.498047 0.82117,0.798479 0.0885,2.658182 1.35671,3.190495 -0.11867,1.113521 1.34693,1.140775 1.05853,2.34069 0.38526,0.929208 1.48031,0.678044 1.84869,1.610157 1.15567,-0.01828 1.4352,1.521106 2.87741,1.058528 1.15177,0.134622 1.85642,1.315022 3.26504,0.924349 1.41815,0.148235 2.82786,-0.09284 3.90612,-0.864713 1.23445,0.110285 2.48254,-0.207216 3.17559,-1.013803 1.08905,0.150692 0.88609,-1.256061 1.95306,-1.133072 1.3259,-0.541796 1.31161,-2.199818 1.78906,-3.175586 1.12613,-0.796365 0.358,-2.617775 1.37161,-3.51849 0.23896,-2.671176 0.66555,-5.787941 -0.26835,-8.334049 -0.81024,-0.811047 -0.11808,-2.62556 -1.32689,-3.220313 0.12805,-1.58167 -1.15688,-2.864399 -2.43015,-3.25013 -0.17403,-1.033134 -1.54036,-0.487022 -1.78906,-1.475977 -1.05425,-0.190946 -1.95275,-0.362087 -2.75814,-0.969075 -1.06104,-0.255868 -2.17657,-0.219959 -3.26504,-0.208724 z m 0.6709,3.339583 c 1.61742,-0.429014 2.15968,1.15815 3.68249,1.028711 2.95372,1.606618 2.82691,5.8839 3.11595,8.885677 -0.0821,3.229393 -0.27538,7.395182 -2.93704,9.49694 -1.61007,-0.15149 -2.18896,1.481302 -3.8614,1.073438 -1.32117,0.06414 -2.69819,0.08161 -3.5483,-0.879623 -2.69176,-0.302398 -2.9799,-3.960717 -3.56322,-6.038086 -0.42513,-4.126023 -0.55858,-9.13684 2.41523,-12.344531 0.7522,-0.315083 1.57015,-0.431615 2.08724,-1.04362 0.81466,-0.197095 1.74615,-0.197001 2.60905,-0.178906 z"
     id="path3084"
     inkscape:connector-curvature="0" />
  <path
     style="fill:#000000;fill-opacity:1;stroke:#000069;stroke-width:0.47708333000000003;stroke-opacity:0"
     d="m 157.81022,29.058034 c -1.31862,-0.236118 -1.42545,1.050241 -2.50469,1.222526 -1.00679,0.459399 -1.94986,2.420664 -2.81777,2.34069 0.095,-1.223286 -0.0612,-2.977216 -1.75924,-2.623958 -4.10854,-1.312304 -3.00108,2.852215 -3.07123,5.486458 0.15917,6.56666 -0.31824,13.396997 0.23854,19.798958 3.3742,0.66408 5.58413,-0.26676 4.53229,-4.055208 0.22507,-4.984627 -0.46384,-10.306704 0.50691,-15.117578 0.64531,-0.642901 0.17186,-2.183222 1.58033,-1.878516 1.37764,-1.249174 3.45311,-0.85532 5.30756,-0.894531 0.3804,-1.572954 0.95821,-5.121811 -2.0127,-4.278841 z"
     id="path3086"
     inkscape:connector-curvature="0" />
  <path
     style="fill:#000000;fill-opacity:1;stroke:#000069;stroke-width:0.47708333000000003;stroke-opacity:0"
     d="m 116.16979,21.17125 c 0,11.290972 0,22.581944 0,33.872917 3.54004,1.491497 5.19993,-0.785579 4.29375,-4.29375 0,-3.101042 0,-6.202084 0,-9.303125 4.23905,-0.207734 8.67302,0.44629 12.80671,-0.491993 1.76051,-1.051874 4.1727,-1.146322 5.82936,-2.609049 1.15712,0.01498 1.27323,-1.049958 1.6847,-1.669792 1.05006,-0.620001 0.41152,-2.239735 1.35671,-2.951953 0.36733,-2.161297 0.65363,-4.867241 -0.64109,-6.63444 0.33505,-1.16681 -0.72732,-1.625594 -0.99889,-2.370508 -0.20984,-1.121195 -1.5624,-0.784583 -1.92324,-1.789062 -1.13474,0.02364 -1.42485,-1.474887 -2.83268,-1.04362 -1.55993,-0.09534 -2.73768,-1.190478 -4.47236,-0.851724 -4.99524,-0.02182 -10.2743,-0.391374 -15.10297,0.136099 z m 11.50964,4.055208 c 3.28111,0.12508 8.37653,-0.619083 9.46712,3.533399 1.71964,3.79417 -1.34672,8.449355 -5.54609,8.214778 -3.51535,0.146864 -7.50153,0.377263 -10.7642,-0.25345 -0.49829,-3.561779 -0.72292,-7.589096 0.0746,-11.136914 2.1461,-0.497591 4.55626,-0.248979 6.76862,-0.357813 z"
     id="path3088"
     inkscape:connector-curvature="0" />
  <path
     style="fill:#000000;fill-opacity:1;stroke:#000069;stroke-width:0.47708333000000003;stroke-opacity:0"
     d="m 104.71979,30.235833 c 0.15912,8.315985 -0.31817,16.895581 0.23854,25.046875 3.3742,0.66408 5.58413,-0.26676 4.53229,-4.055208 -0.15914,-7.04375 0.31822,-14.351154 -0.23854,-21.230208 -1.44651,0.186664 -3.26152,-0.351616 -4.53229,0.238541 z"
     id="path3090"
     inkscape:connector-curvature="0" />
  <path
     style="fill:#000000;fill-opacity:1;stroke:#000069;stroke-width:0.47708333000000003;stroke-opacity:0"
     d="m 104.71979,21.17125 c -1.03033,3.76241 1.17328,4.701345 4.53229,4.055208 1.40932,-3.378974 -0.59949,-5.212109 -4.05521,-4.29375 l -0.23854,0 -0.23854,0.238542 z"
     id="path3092"
     inkscape:connector-curvature="0" />
  <path
     style="fill:#000000;fill-opacity:1;stroke:#000069;stroke-width:0.47708333000000003;stroke-opacity:0"
     d="m 80.865625,21.17125 c 0,11.290972 0,22.581944 0,33.872917 3.540038,1.491497 5.199928,-0.785579 4.29375,-4.29375 -0.06397,-2.877177 -0.430884,-6.223439 2.339092,-8.033115 1.2693,-0.04463 2.310833,1.989442 2.744827,3.336826 0.977624,0.171262 0.491974,1.557526 1.505794,1.759244 -0.161282,0.964847 0.599918,1.549524 0.998894,2.131967 -0.280064,1.743938 2.017261,1.305686 1.997786,2.98177 0.967203,2.396648 4.624768,3.10094 6.544992,1.774154 -0.2754,-1.24127 -2.071133,-1.758031 -1.982882,-3.235221 -0.534059,-0.673403 -1.574986,-0.337869 -1.535612,-1.505795 -1.531768,-2.168673 -2.371247,-4.687599 -4.383204,-6.425716 0.06907,-1.764678 -2.896885,-2.429617 -1.729427,-4.263932 2.007537,-3.393052 5.789038,-5.61074 7.767513,-8.900586 -1.485264,-0.514432 -3.933361,-0.794209 -5.20319,0.298177 -0.749112,0.590937 -2.325989,1.057957 -2.385416,2.459961 -1.77019,2.357998 -3.993772,4.374606 -6.366081,6.097721 -0.667584,-6.051967 0.07521,-12.391791 -0.551628,-18.293164 -1.300054,0.160951 -2.927958,-0.320608 -4.055208,0.238542 z"
     id="path3094"
     inkscape:connector-curvature="0" />
  <path
     style="fill:#000000;fill-opacity:1;stroke:#000069;stroke-width:0.47708333000000003;stroke-opacity:0"
     d="m 69.892708,30.235833 c 0.159118,8.315985 -0.318176,16.895581 0.238542,25.046875 4.092038,1.187774 4.597957,-1.599933 4.055208,-5.009375 -0.15916,-6.72569 0.318233,-13.715049 -0.238541,-20.276041 -1.300055,0.160951 -2.927958,-0.320608 -4.055209,0.238541 z"
     id="path3096"
     inkscape:connector-curvature="0" />
  <path
     style="fill:#000000;fill-opacity:1;stroke:#000069;stroke-width:0.47708333000000003;stroke-opacity:0"
     d="m 71.145052,20.947617 c -1.86608,0.03674 -1.559744,3.068633 -0.77526,4.085026 1.554393,0.5374 4.525633,0.522072 3.816666,-1.95306 0.396409,-2.341969 -1.146885,-2.278429 -3.041406,-2.131966 z"
     id="path3098"
     inkscape:connector-curvature="0" />
  <path
     style="fill:#000000;fill-opacity:1;stroke:#000069;stroke-width:0.47708333000000003;stroke-opacity:0"
     d="m 22.914909,20.947617 c -2.345742,0.01801 -0.332781,3.058904 -0.331302,4.264299 1.20177,3.197154 1.233544,6.972488 2.970169,9.884204 0.893832,0.934991 0.0052,2.898711 1.222526,3.682487 0.185784,1.414085 0.09137,2.975451 1.013802,4.02539 -0.01294,1.454074 0.18489,2.855251 0.998893,3.935938 -0.227949,1.400635 0.441345,2.387887 0.954167,3.443945 -0.116711,1.337645 0.170398,2.752447 0.983984,3.578125 -0.06265,2.440572 3.41934,1.203938 4.81556,1.520703 2.054323,-0.02194 0.08667,-3.320935 1.684701,-4.263932 0.264173,-1.315799 0.158753,-2.646752 1.028711,-3.652669 0.127326,-1.398363 0.08358,-2.774134 0.954166,-3.816667 0.183223,-1.339965 -0.0018,-2.775704 0.954167,-3.727213 0.08276,-1.289016 0.180363,-2.459248 0.954167,-3.414128 0.01141,-1.667993 0.254365,-3.089729 1.237435,-4.383203 0.673744,-1.398799 0.865687,-3.731789 1.535612,-4.68138 1.178543,2.747611 1.139771,6.243917 3.011588,8.691862 -0.07791,1.324054 0.235618,2.567477 0.969076,3.548307 -0.285342,1.448788 0.558591,2.451172 0.954166,3.548307 -0.071,1.502962 0.120672,2.964095 0.954167,4.085026 -0.148986,1.314532 0.308654,2.392379 0.954167,3.339584 -0.114077,1.261387 0.214721,2.427788 0.998893,3.205403 -0.08974,2.323298 3.393033,1.644687 4.726107,0.90944 1.473399,-0.807006 0.526175,-2.828042 1.759244,-3.697396 0.352654,-1.384593 -0.01619,-2.985647 1.028711,-3.995572 0.09003,-1.289157 0.176405,-2.466097 0.954167,-3.429037 0.127326,-1.398363 0.08358,-2.774134 0.954167,-3.816667 0.138169,-1.498518 -0.02464,-2.919037 1.16289,-3.876302 1.192121,-4.888128 2.864008,-9.698723 3.727214,-14.640494 -1.345977,-0.242699 -3.917896,-0.872379 -5.128646,0.357812 0.172575,1.349722 -1.394552,1.699609 -1.028711,3.205404 0.503399,2.080989 -1.515347,3.097388 -1.013802,5.233007 -0.200788,1.301176 -1.393283,2.130857 -0.924349,3.742123 0.11283,1.615046 -1.52859,2.528258 -0.969075,4.368294 -0.411062,1.691525 -1.541797,3.235415 -1.654883,5.158464 -0.363887,0.925564 -0.401753,2.945926 -1.162891,3.339583 -1.411573,-2.40397 -0.876422,-5.808921 -2.743229,-7.901693 -0.02677,-1.253113 -0.22422,-2.509221 -0.969076,-3.399218 -0.01235,-1.397542 -0.145473,-2.820649 -0.954166,-3.816667 0.01293,-1.454074 -0.184891,-2.85525 -0.998893,-3.935938 0.12452,-1.263426 -0.260073,-2.354925 -0.909441,-3.220312 0.637775,-3.348875 -1.399806,-3.925888 -4.398112,-3.414128 -1.388859,-0.308902 -2.64533,0.417287 -2.534505,1.81888 -1.456741,0.729103 -0.24981,3.019382 -1.550521,3.921029 -0.307739,1.450481 -0.06056,3.000811 -1.028711,4.085026 -0.18838,1.350218 0.0071,2.792523 -0.954166,3.727214 -0.09003,1.289157 -0.176405,2.466096 -0.954167,3.429036 -0.176407,1.41428 0.01809,2.919757 -1.058529,3.876302 -0.753534,1.735106 -1.405838,3.600107 -1.490885,5.501367 -1.697253,-3.10753 -1.250288,-7.156343 -3.205404,-10.063476 -0.05902,-1.356375 -0.112078,-2.834521 -0.954166,-3.816667 -0.0082,-1.404725 -0.159012,-2.828472 -0.954167,-3.861393 -0.167928,-1.41108 0.08198,-3.139911 -0.954167,-4.189388 0.278616,-2.096449 -0.778893,-4.694116 -3.265039,-4.413021 -0.456664,-0.01835 -0.915252,-0.03061 -1.371614,0 z"
     id="path3100"
     inkscape:connector-curvature="0" />
</svg>
